*** Life<FredkinCell> 24x13 ***

Generation = 0, Population = 63.
-0-0-----0-0-
-0--0----00--
0-0------0-0-
-----------00
--00--0--0-0-
00---0---0---
0-0-0-----0--
--0--------0-
----------0--
-------------
-----------0-
--------0-0-0
0-0--0---00--
------0----0-
----------00-
00------0--0-
------------0
---------0---
-0---0-------
-------0---00
000----0--0--
-----0----0--
------0------
---0---------

Generation = 1, Population = 135.
01------010-0
-1---0--0110-
-0-00---0101-
0--0--0---011
0-110--001-1-
-100----01-0-
101----------
00100-----0-0
--0------0---
----------00-
--------0----
0-0--0-0-010-
---00----1--0
0-0----0-0010
00----0-00110
110----0-0-1-
00------00---
-0---0--0-0-0
0-0-0-00-0-00
0-0--0010--11
1-10-001001-0
000-0--0-010-
---0---0--0--
--0-0-0------

Generation = 2, Population = 121.
1-0--0-0-2-0-
--00--001----
-1--1-00-2-2-
1---00---0--2
10--10-11-0--
0----------10
--200---00000
-1--10-------
0-1-0---0-000
--0-----0-110
0-0--0-------
--------0--1-
--011---0-001
10--0---01121
1-0--0--1-2--
2-10------02-
-1---0-----00
01------1--01
101-------0-1
---------0--2
-0210-1-11--1
--------0--1-
000-0--10-1--
-0-0------0--

Generation = 3, Population = 141.
--1-0-010---0
0--1----21---
----20--03---
20-01----1---
2111---221---
1-00-0-0-10--
1-3----01--1-
--1-210--0---
-02-1--01--1-
-0-000-01--2-
--100-0---0-0
0--000-010-2-
0-1--0-0-1---
-10-1--01--3-
-01---0020-10
31-10---00---
02-00-0-0--1-
-2---0-0-0--2
-120----0--0-
0--00-0--1-1-
11--1-----1-2
0--0--0------
1110-002--2--
-10----00010-

Generation = 4, Population = 127.
11-0--1----0-
-1--000-3-1-0
-1-0-100-40--
--0----00-0--
3222-00--2---
-11-------1--
2---0---20--0
0-----100-0--
0--0-0----020
01---10--0-3-
0-2-1--0-----
100-1-0---1--
102-11---20--
--1----1-114-
-1---011----1
-21--0--1-0-0
-3---0-0100--
------0---00-
-----00--001-
10-----1--02-
222120-----0-
-0-1--1-----0
-22--11---3--
-----0----210

*** Life<FredkinCell> 19x26 ***

Generation = 0, Population = 50.
-0------------0---0-----0-
-00------00---------------
-------------0------------
-0----0---0---------------
---0----------------------
--0-0-------0--0---0-0----
-----0---0-----0-0-------0
------0-0-0-00-----0------
-------0---------0---0----
--0--------------------00-
-0------------------------
--------0-0-----------0---
--------------------------
-----0--------------------
----------------------0---
--0-----------------------
--000------0--------------
----------0---------------
---------0-0--------------

Generation = 4, Population = 140.
-4-2-0----1--12---0-0-0-0-
3---2----14-0001---0-0----
-0---0--------30--0-----01
-00--0--1---010----0------
-1------------1--01--0--1-
-3----0--101---201-1----10
-----0---0-2-1-----2---0--
-10-0----01-2-1012----12--
-----------1-1---2---1---2
0-0-000-----2--0----03--23
-0-------0-----0-0----1--1
--0-1---0-0--10---01------
--110--1---0-----0---1----
-00------00------------11-
-1-------0-0------0-------
2-----0-0-0-----------1---
------2-10-0---0----------
-----11---0---0-----------
--0021-0---0-0-0------0---

*** Life<FredkinCell> 29x21 ***

Generation = 0, Population = 57.
---------0------0----
-------------00------
-0-0-0---0-----------
-----0---------------
0-----0----------0---
---------------------
--------------0--0---
------------0---0----
-0-------0-----0----0
----0---------------0
--0-------0----------
----00-------------0-
--------------0------
---0-----------------
---------------------
---------0------0----
0-----0------0-----0-
--------0------------
-------0----0--------
-----0-----------0---
----0-0-0---0--------
------0----------0---
-------0---------0---
------00-0-----------
--------0------------
---------------------
-------------0------0
-------------00-----0
---------------------

Generation = 4, Population = 166.
10-0--0--0--01---0--0
---------11--21--01--
-------0-----11-02---
-0-------0--1---1----
-1--0-----1--0-21---1
----0--------11-----1
-210-0---0---1----1--
----0---0---1---1--11
01----0----2-23-1101-
1--1----1-------0-0--
2----------------1---
10------0---0--1---1-
00----1--00--1-1--011
----1--01-----------1
--0----0--0-1--------
----00------00---0-00
------0-100-3-00-2-0-
---01-3-----0----0---
---0---00--0----10---
-0----21-0---1--0----
--0-2-1-0-0-00--1--0-
--1-----3-1--0-------
---1---2---00-------1
--01------10--0--3--1
------3-0------------
------0----------1---
-------0-0------0-2--
------00--1--02-20--2
--------0----1------3

*** Life<FredkinCell> 29x16 ***

Generation = 0, Population = 60.
----------0-----
----------------
--------0-------
----0--0--0-----
----------------
----------------
----------------
---------------0
---0------------
------------0---
-------0-0---0--
---00-----------
---0------0-0-0-
----0-0-----0---
------0-------0-
0------------0--
----0-----------
------0---------
---------00-----
----------0--0--
0----------0----
-0-----000------
--0--0--0-------
--0-----0-----0-
--0---0---------
--0-----0-0----0
0-------------00
---0---0---0----
-00-----0----000

Generation = 2, Population = 156.
----------0-0---
----0--0--1-----
------0---------
--0--11-01--0---
--------0-------
----0--0--0----0
---0------------
------------00-0
-0---0-0-0---0--
---10-----0---00
-----0-0-01-0-10
-01-21----------
-0---010010--0--
0-00--2-0-1--10-
---0----0-0---0-
0-0-1------01--0
--0------00---0-
0---1---0-1-----
0---0--01---0---
-0----00-0-01--0
0----0--1-0--1--
--00-11222-1-00-
--211--0--00----
010-0-11-1--0--1
--0--1--------11
1-210-11--010002
011---0-1---0-2-
-10-----0-1--1-0
-2200-0-0-011---

Generation = 4, Population = 162.
------0-0-----0-
----------------
----1-----1-1---
0--1--1-0--1--00
---0------1-----
------------0---
-------100---1--
---1---1--01-0--
---1---0--0-0-0-
----2-0-0---1---
---1-20--2-0-010
-------01----1-1
---20-302-0-----
0-2---4---1-2---
--1----1--2--02-
--21-----11--1-0
---1----0-001-0-
-11-3-00213-1---
--0-----1----1--
1-1---2-00---0-0
------11-------1
-1001-1-4-0300-1
-0--1-1---2-0-11
2--12-31---0010-
-0----1-0-11-013
31--2--301-1200-
-33-11----00---1
--2----10-----10
-24-20---00131--

Generation = 6, Population = 209.
--------------0-
0--0--1-1--0--10
--00--------1---
011-031-031----2
-0--10-0-11--0--
0-----011----0-0
-----01--20-0-10
-0--1-1----322-0
-0-3-002-121---1
--032-----20--01
-0-1-40--2----1-
0-2-431-10-1-3--
-1-42032---12--1
---0---111--2-1-
1----01120--0-40
-----0---3--23--
-1---010-12--1--
--1--02021313-1-
2--12--01---1-1-
--31--4-0221---2
-10--23--11-1-1-
11--11-44------1
-2331-101--0---1
-2232--311-023--
--1102---13-0-1-
--3-40152--3--0-
0----3-0------4-
-3---0132-20--30
1-4-4-1-1-0---0-

*** Life<FredkinCell> 19x16 ***

Generation = 0, Population = 45.
----------0-----
-----0----------
-000------0-----
-----------0----
00---0----------
----------------
-0----0---0-0---
--0-------------
---0---------0--
----------------
--------------0-
-----00------0-0
-0---------0----
0-------0-----0-
0----0---0-0-0--
-----0------0---
0---------------
--00----0---000-
---0------0---00

Generation = 3, Population = 136.
01--0----0---0--
-0----0-0---0---
--0-2----0-0----
0------0----0-0-
-1--0-2100------
----0000----000-
-1-0-20--0-01-10
1--0100----0-0-0
0-0----0-01-202-
----0--0--0-0201
--01-000--0--1-0
1-012-1-0-0-0--0
-0-10-00---1002-
3010-0-----00102
12-10--00---0-01
-0-0-10-001-1--0
---20--0011-0---
---0---00002101-
----0--0----01--

Generation = 6, Population = 133.
-2---0----0-0---
--0----1---0---0
--12-0001-0-00--
11--11-------1-0
-20-1032------11
0-10-1-----0-1--
211--53-0--1-2-1
--01-1-111-3--0-
-10--2--11--3122
-00---1---------
00111---0-102-00
2--2---200-332--
-1-40-0---0-0122
-0---0---0-----2
-3---11-102-1-0-
--1----1332--211
1----1--0----2--
1-1--1031-3----0
-01---21----0-12

*** Life<FredkinCell> 20x22 ***

Generation = 0, Population = 44.
-------0-----00-------
-----0-----------0----
----------------------
------0-----------0---
0---------------0-----
--0-00----0------0--00
--------------0-------
-----0----------0-----
-----------0----0-----
----0-----------------
--0------------0-----0
---------------0------
-------------0----0---
------------------0---
--------------0--0---0
-----0------0---------
--0----------0--------
------------------0-0-
---0-----00-----------
--------------0--0--0-

Generation = 2, Population = 128.
-----1-0-0-012210-----
---0--11-------0--10--
0------0-----00-0-----
--0-----0-0-----1----0
0-1---------------1---
1-0022-00---0--00----2
0----------00---1-----
--00-0-0--0---1--10-00
--0------0---0-1--0--0
--1--10--------11-----
0---1------0----1000-0
----0--------1---01---
--0--------0--1-01--0-
-----0------0--00---0-
--0---------1--11-0--0
---0---0--0---1-----0-
0--10----000--10-0---0
-----0------0-0-010---
-01--0-01--100--------
------------0-0110-1--

Generation = 4, Population = 131.
0--1-----002----211---
-01-1----10--0------1-
-------2-----2--------
--2--0----0---1-3-----
--1-1--1---0100-0---0-
-0--24--21---11-0--022
--0-------0----0--1--0
-1----0--0--1--0--0-2-
0------1----10-31-2-0-
1-3-03--0-0------00-00
0-----1----0---------0
-----------01---1--0--
--0------0-0-01-01----
----1---------0---2-2-
--00-----0---1-1-001--
-0------10----3111--0-
0-----0--2---1---20---
----------------232---
---1-202-22--2---0---0
-----1----0-21--1----0

Generation = 6, Population = 222.
-001-1--1-2-2-23-1-11-
0--111231-0-1-111-3---
0-0011-2--001410-00-1-
0-4100-0--0-------00-0
1---3111---21---0-1--0
-0---61--3-------1024-
--0-----1--21102213012
01010--010-1-------04-
-----10--1---2--312-0-
-0-02-1000001------0-0
----3--11--20001-22202
1-1--0--01---11---2---
--011-00---21-1003---0
-00---0-00-1--20-141--
-02-0000---0-10---2310
---20-11--2001-3---00-
0---110-0-2----21-0-10
-0---2--001-10--4321-1
01-10-0-----04---20--2
---1-3-10--0-1-2-1-1--

Generation = 8, Population = 129.
-----30----3--234----1
-13--1---10--2---0-110
0-0------------02----0
0-----1---2---31------
------3------2----1-1-
-0--26---31----221-4--
------10-----1---3---4
-1---0--3---20------6-
--10---21-----1----02-
--3--5------1----11-0-
---05--1-1---2-3-----2
------01------3--24-10
1----1----1-----0-2--0
--2-10--------4---6--0
---2--0---0--103---3--
-1--20-------1--1-1---
--0-13----21-1--1----0
----14----1-----4-2---
-1-1-------2--11--0---
------1--1--4--21-11--
