*** Life<Cell> 3x5 ***

Generation = 0, Population = 7.
0-0--
0-00-
---00

Generation = 15, Population = 5.
.***.
.0.*.
..-..

*** Life<Cell> 8x17 ***

Generation = 0, Population = 86.
000000-000000-0-0
0000000-000--00-0
0000----000-00-00
-0---0000-0-0-0-0
0---0----00-0--00
000--0000-000-0--
0-000000-0000----
000000-----0-000-

Generation = 1, Population = 72.
-1111-01111-101-1
1---11101-1-0--0-
--1-----111----11
01-0-1-------0---
1000-0--0110-001-
1---0-111-111---0
--111-1-011----0-
--111--0-0-101-10

Generation = 2, Population = 63.
-*---0-**-----*0-
------*1*---1--10
----0-0----0000-*
---1-*0----001--0
*1--01----*-0--*-
*--010--*-***-00-
00-**-*--*-0-0010
-0-*-0--010*-*--1

Generation = 3, Population = 58.
0.1-1-0.*1--10*--
-0--1-.**0--*-0--
-----0--1-1--111*
010--.-0--------1
**00-*--01*----*-
.00----1.0...0-1-
---..-*00.--0-1*-
-1-*1--01*-*-*--*

Generation = 4, Population = 60.
-*--*--..-10--*0-
---0*-*..--0*---0
0-1---00*1-0-**-*
-*---.0-00---100*
..-1-.001**0-00*-
*----0-*.1*..-0-0
--1*.0*--.----**-
0--.*0--**-.0*--.

Generation = 5, Population = 65.
0.1-*00..1*--0.1-
10-1*-*.*0-1.---1
-0--001-.--10..1*
-*-1-*--11--0*-1*
..0-0*-1*..1---.0
.00-11-..-.*.----
-0**.1.-0.1-0-**-
-11**--0..0.1*-1.

*** Life<Cell> 3x15 ***

Generation = 0, Population = 8.
0-----0--------
----00-00------
------0-----0--

Generation = 4, Population = 16.
----10-0--1----
11-*-.-.-*-10--
--1--0-01-*---0

Generation = 8, Population = 17.
----.-001--1--*
..0***-.-.*.-.1
---010-1...--11

Generation = 12, Population = 19.
--1-*-*-..11.*.
****..0*...*-.-
111-.*--*.....1

*** Life<Cell> 3x10 ***

Generation = 0, Population = 10.
0----0-0--
-00----000
--------00

Generation = 5, Population = 11.
--.1---100
**1--..*.1
10--------

Generation = 10, Population = 14.
*-.--1-.-1
..*-*....*
.0.0001*11

*** Life<Cell> 12x3 ***

Generation = 0, Population = 5.
---
---
-0-
---
--0
---
---
---
---
--0
--0
--0

Generation = 10, Population = 16.
**.
-*0
-1-
---
1*.
-1*
...
--1
0..
*.*
*0*
--.

*** Life<Cell> 15x18 ***

Generation = 0, Population = 102.
-----0---0-0-00-0-
-----0--0----0----
-000--0---0--0-0--
-0--0--00000------
0--------0-0------
---0--0--00-0-0---
------0--0-0--00-0
00000000-----00--0
---0-0------00----
----0--00-0--0-0-0
---000---000-0-00-
0000-000-0-0-----0
000--000----------
--0-00--0-----0000
0000----0--0000---

Generation = 1, Population = 133.
----010-------1--0
-00001-0--000--00-
0--1------1-01--0-
-1---0-1-11-00-0--
---00-00---1--0---
0-0-0010011---1--0
000-0---010---11-1
1--1-11100-0----01
00-1-1--0-0011-0--
---01001101----10-
00--1-----1--1--10
-11-011--10100-0--
-11--11--0-0--000-
-0-01---10-00----1
1-11-0-01001----00

Generation = 2, Population = 130.
-00--*1---0000----
-1-11-0-00-----1--
-0-*-------01-0010
--0---0*-*-0--0---
00-1---1--0---1--0
10101-*11*---0--01
1--010-01----0-*0-
-0-*0------1-0001-
-1--0-00---1-*-100
--0-*1--*-*-0-0---
1----0-000---*00-1
-*---*-00-1*--0100
0*--0--0--0-0-111-
-1--*00--10110000*
-0*-0--1*1-----01-

Generation = 3, Population = 130.
0-1--*-00-1--110--
0-0-*11-11---0-*-0
010*---00-1-*--1-1
01-0-01*-.11-0--0-
---*--0--0----*0-1
*1---0.-**--01----
*0-1-10----00-1.1-
-1-.1-1-0-0*-1--*-
0*---111---*1.--11
0---*--1.0*0--110-
--0------110-.--1*
0*1--*-1-1-*--1-1-
1*1011-1----10*-*0
---0*-10--1-*-1--*
1-*-1--**--100----

Generation = 4, Population = 149.
1-*0-*11-0-00---00
-1-1***-**0--10*-1
1*1.--0--0*0*10*1*
--0--1*.-.-*0--0-0
--0.001--1-100*10-
*-1-11.1**1--*1001
.1--1--0-1-----**1
1-0.---1--1.---0*-
-*0-0**--00.**0-**
1-00.--*.-.1-0*-10
--1010--0**10.--**
-.*--*-*-*1*--*--0
-.*1*-1-000---*-*-
-10-.0*1-1-1.-*0-*
--.1*0-**1-*11---0

*** Life<Cell> 15x4 ***

Generation = 0, Population = 9.
----
----
-0--
-00-
---0
----
0---
---0
----
0-0-
--0-
----
----
----
----

Generation = 3, Population = 39.
01--
0-10
0100
*011
1---
011*
1-1*
*---
*0-0
-0**
*0-0
1-*0
0010
--0-
----

Generation = 6, Population = 24.
1.--
--1-
*.11
...1
1---
11.*
*--*
.1.-
.1--
*.*.
*--0
-0.1
1---
--.1
1-*-

Generation = 9, Population = 22.
-**-
11.1
*.*-
....
*---
..**
.0**
...*
.*--
*...
*--.
*0..
*---
0-.1
--.-

Generation = 12, Population = 23.
*.*-
-*.1
...*
..*.
.1--
..*.
**..
**..
*..-
*.*.
.--.
*...
.1-0
***1
*-.-

*** Life<Cell> 11x5 ***

Generation = 0, Population = 10.
0----
---00
-----
-0---
-0-0-
-----
-----
-0-00
---0-
-----
-----

Generation = 9, Population = 21.
-.*..
*..1.
..1.-
0.-.-
*.1--
**-.*
..*-*
**1**
0---0
----1
-0-.-

Generation = 18, Population = 16.
-....
.....
..-..
..1*.
...**
**-*.
*.*1.
*.**.
*-*-0
..-..
--...

*** Life<Cell> 18x11 ***

Generation = 0, Population = 61.
---0--0---0
-0---0--0--
----------0
00--0----0-
-0----0----
--0-0-0--00
-----0---0-
--0-00-----
--0---0----
--0--0000--
-00000--0--
-0--0------
--00-0-0---
-0-0-00---0
---00------
000---0----
-0------0-0
-00---0-00-

Generation = 3, Population = 102.
-*-1*-----1
*100*0-*0*-
0-010000*0-
*1--1--1-1-
0---1*-0--*
01----**0-*
--1-0--00--
1-.1111-1*1
1*--*--00-0
1--100*--*-
--.1*--0---
0.0----*-01
1-.--.-1*10
---0--.10-1
00--10-110-
---0--0001-
-----010*0-
--1--0-10*1

*** Life<Cell> 1x19 ***

Generation = 0, Population = 11.
000---000-0-000-0--

Generation = 5, Population = 8.
-0..-..**1--10.-.10

Generation = 10, Population = 3.
1-..-.....**...-...

*** Life<Cell> 9x6 ***

Generation = 0, Population = 9.
--0---
------
--0---
------
--00--
0--0--
0-----
0-----
---0--

Generation = 12, Population = 21.
..-...
-.-*-0
*-1*.*
*.-.-*
*.*..*
*...-*
*-..*1
.0...1
***.-.

*** Life<Cell> 2x1 ***

Generation = 0, Population = 1.
-
0

Generation = 1, Population = 1.
0
-

Generation = 2, Population = 1.
-
0

Generation = 3, Population = 1.
0
-

*** Life<Cell> 12x7 ***

Generation = 0, Population = 22.
---0--0
000-0--
---0---
--00---
0--0---
----0--
00-----
-------
------0
----0--
-000---
--000--

Generation = 8, Population = 38.
**-1-.0
***0*0.
...----
**.-.-1
*-1.-.-
-1*--0*
.-.--**
1110-0-
....*.*
*.**.-.
*.1**.*
-**...-

*** Life<Cell> 5x10 ***

Generation = 0, Population = 8.
--0---0---
------00--
---00-----
--------0-
-----0----

Generation = 2, Population = 14.
0-010-*-0-
----11---0
-0--------
-------1--
----10-0--

Generation = 4, Population = 23.
0-*101.---
--10-*01-0
1-1--1010-
----1--.--
-001.-0--0

Generation = 6, Population = 22.
--**--.-0-
01.0-**-1-
10*111-.*-
---0-00.11
---..--*--

Generation = 8, Population = 25.
--.*1-.1--
01*--..-11
-**11.*.*0
1--**-*.-*
01-.*-0.-1

*** Life<Cell> 9x16 ***

Generation = 0, Population = 77.
-0-0-00-000-0-0-
000-0--0-0000---
--00-00-0000----
00--00--0000--00
---000---00-00-0
0----0--0---0-00
-000-0-0-0-0-000
-0--0000-0--00-0
--000-0---00-00-

Generation = 5, Population = 76.
*1-0...0-*0-*00-
*.0.-0-1*.-*1*01
1*-**0**..-.10-1
*.--0.-.1-*-0*.-
--*...1.--001.--
*-*--00-1**0111*
10-.*--10.011-.*
1-1-0-.-0*-0..**
--.-*0---1*.-**0
